<svg width="20" height="16" viewBox="0 0 20 16" fill="none" xmlns="http://www.w3.org/2000/svg">
<g clip-path="url(#clip0_40_219)">
<path d="M5.78589 1L5.78591 15" stroke="#CC999C" stroke-linecap="round" stroke-linejoin="round"/>
<path d="M7.5874e-07 9.21402L5.78598 15L11.572 9.21402" stroke="#CC999C" stroke-linecap="round" stroke-linejoin="round"/>
</g>
<defs>
<clipPath id="clip0_40_219">
<rect width="20" height="16" fill="white"/>
</clipPath>
</defs>
</svg>
