<svg width="40" height="40" viewBox="0 0 40 40" fill="none" xmlns="http://www.w3.org/2000/svg">
<rect width="20" height="20" rx="10" fill="#FFF4CC"/>
<rect x="20" y="20" width="20" height="20" rx="10" fill="#FFF4CC"/>
</svg>
