<svg width="20" height="20" viewBox="0 0 20 20" fill="none" xmlns="http://www.w3.org/2000/svg">
<path d="M0 9.3335C0 8.78121 0.447715 8.3335 1 8.3335H19C19.5523 8.3335 20 8.78121 20 9.3335V10.6668C20 11.2191 19.5523 11.6668 19 11.6668H1C0.447716 11.6668 0 11.2191 0 10.6668V9.3335Z" fill="black"/>
</svg>
